1 Weather Data Preparation and Wrangling | Welcome to the Documentation!
…
The outputted table shows weather data for a 24-hour period on January 1st, 2014 at the San Francisco International Airport. The valid column species when each weather report was generated, typically at 1-hour intervals. The tmpf and dwpf columns give the ambient air temperature and dew point in Fahrenheit (ºF). Other important variables in our project include air pressure (alti), measured in inches of mercury (in.Hg), and visibility (vsby) in miles. For more information on all available varibles, see Iowa State’s Documentation.

Next, we will apply this function at a large scare across multiple sensors and timescales.

1.2.2 Selecting Which Sensors to Query

The FAA collects weather data at hourly intervals for each meteorological station, with some stations providing half-hour intervals. Even querying for short periods of time can yield large amounts of data. To optimise performance, we want to only query data from stations in our study area.

Finding Sensors by State

In our project, we focus on certain counties in Illinois, Indiana, and Wisconsin, so we are interested in finding the sensors within that study area. The first step is to query the locations of all weather stations in Illinois, Indiana, and Wisconsin using the reim package. In the example below, we query for sensors in the Illinois ASOS sensor network.

riem_stations(network = 'IL_ASOS')

## # A tibble: 61 x 4
##    id    name               lon   lat
##    <chr> <chr>            <dbl> <dbl>
##  1 ALN   ALTON/ST LOUIS R -90.0  38.9
##  2 BMI   BLOOMINGTON/NORM -88.9  40.5
##  3 CPS   CAHOKIA/ST LOUIS -90.2  38.6
##  4 CIR   Cairo            -89.2  37.1
##  5 MDH   CARBONDALE/MURPH -89.2  37.8
##  6 CUL   Carmi            -88.1  38.1
##  7 ENL   CENTRALIA        -89.1  38.5
##  8 CMI   CHAMPAIGN/URBANA -88.3  40.0
##  9 MDW   CHICAGO          -87.8  41.8
## 10 ARR   CHICAGO/AURORA   -88.5  41.8
## # … with 51 more rows
…
