5 Interpolation Models | OpenAirQ-Toolkit.utf8
…
5.3 Importing Temperature Sensor Data

Temperature data is the variable to be interpolated in this tutorial. In the code below, avergae monthly temperature for August 2018 at each sensor location is loaded into R. Other weather variables were also interpolated using similar methods, but these are omitted for brevity. For more information on compiling a weather dataset, refer to Appendix A.

tmpf = readr::read_csv('./data/ASOS_tmpf_2014.2018.csv') %>% 
  filter(moyr == "2018-08")

tmpf

## # A tibble: 24 x 5
##    moyr    site_num latitude longitude  tmpf
##    <chr>   <chr>       <dbl>     <dbl> <dbl>
##  1 2018-08 06C          42.0     -88.1  72.0
##  2 2018-08 57C          42.8     -88.4  71.2
##  3 2018-08 ARR          41.8     -88.5  72.4
##  4 2018-08 BUU          42.7     -88.3  70.1
##  5 2018-08 C09          41.4     -88.4  73.1
##  6 2018-08 DPA          41.9     -88.2  72.8
##  7 2018-08 ENW          42.6     -87.9  70.9
##  8 2018-08 IGQ          41.5     -87.5  73.5
##  9 2018-08 IKK          41.1     -87.8  74.1
## 10 2018-08 JOT          41.5     -88.2  75.4
## # … with 14 more rows
…
