Appendix F: Roads Data | OpenAirQ-Toolkit.utf8
…
primary.roadlengths <- primary.merged %>%
  group_by(DATA.x) %>%
  summarize(length = sum(length))

What we have obtained above is the total length of “primary” and “primary_link” roads in each grid. The new sf object, grouped by grids, is named primary.roadlengths. Let’s take a quick look at what information it contains.

primary.roadlengths

## Simple feature collection with 29903 features and 2 fields
## geometry type:  POLYGON
## dimension:      XY
## bbox:           xmin: -88.78167 ymin: 40.73704 xmax: -86.46887 ymax: 43.19439
## geographic CRS: WGS 84
## # A tibble: 29,903 x 3
##    DATA.x   length                                                                                     geometry
##     <int>      [m]                                                                                <POLYGON [°]>
##  1      1       NA ((-88.53387 43.19439, -88.52207 43.19439, -88.52207 43.18606, -88.53387 43.18606, -88.533...
##  2      2       NA ((-88.52207 43.19439, -88.51027 43.19439, -88.51027 43.18606, -88.52207 43.18606, -88.522...
##  3      3 1686.194 ((-88.51027 43.19439, -88.49847 43.19439, -88.49847 43.18606, -88.51027 43.18606, -88.510...
##  4      4       NA ((-88.49847 43.19439, -88.48667 43.19439, -88.48667 43.18606, -88.49847 43.18606, -88.498...
##  5      5       NA ((-88.48667 43.19439, -88.47487 43.19439, -88.47487 43.18606, -88.48667 43.18606, -88.486...
##  6      6       NA ((-88.47487 43.19439, -88.46307 43.19439, -88.46307 43.18606, -88.47487 43.18606, -88.474...
##  7      7       NA ((-88.46307 43.19439, -88.45127 43.19439, -88.45127 43.18606, -88.46307 43.18606, -88.463...
##  8      8       NA ((-88.45127 43.19439, -88.43947 43.19439, -88.43947 43.18606, -88.45127 43.18606, -88.451...
##  9      9       NA ((-88.43947 43.19439, -88.42767 43.19439, -88.42767 43.18606, -88.43947 43.18606, -88.439...
## 10     10       NA ((-88.42767 43.19439, -88.41587 43.19439, -88.41587 43.18606, -88.42767 43.18606, -88.427...
## # … with 29,893 more rows
…
We use the which function to return the positions of all missing values, and on those exact position, we replace the value with x0. Hence, all missing values now read “0 meter.”

primary.roadlengths[which(is.na(primary.roadlengths$length)),2] <- x0

As always, it is critical that we inspect our data from time to time. If we print out primary.roadlengths, we see that all missing values have indeed by replaced by “0 meter.”

primary.roadlengths

## Simple feature collection with 29903 features and 2 fields
## geometry type:  POLYGON
## dimension:      XY
## bbox:           xmin: -88.78167 ymin: 40.73704 xmax: -86.46887 ymax: 43.19439
## geographic CRS: WGS 84
## # A tibble: 29,903 x 3
##    DATA.x   length                                                                                     geometry
##     <int>      [m]                                                                                <POLYGON [°]>
##  1      1    0.000 ((-88.53387 43.19439, -88.52207 43.19439, -88.52207 43.18606, -88.53387 43.18606, -88.533...
##  2      2    0.000 ((-88.52207 43.19439, -88.51027 43.19439, -88.51027 43.18606, -88.52207 43.18606, -88.522...
##  3      3 1686.194 ((-88.51027 43.19439, -88.49847 43.19439, -88.49847 43.18606, -88.51027 43.18606, -88.510...
##  4      4    0.000 ((-88.49847 43.19439, -88.48667 43.19439, -88.48667 43.18606, -88.49847 43.18606, -88.498...
##  5      5    0.000 ((-88.48667 43.19439, -88.47487 43.19439, -88.47487 43.18606, -88.48667 43.18606, -88.486...
##  6      6    0.000 ((-88.47487 43.19439, -88.46307 43.19439, -88.46307 43.18606, -88.47487 43.18606, -88.474...
##  7      7    0.000 ((-88.46307 43.19439, -88.45127 43.19439, -88.45127 43.18606, -88.46307 43.18606, -88.463...
##  8      8    0.000 ((-88.45127 43.19439, -88.43947 43.19439, -88.43947 43.18606, -88.45127 43.18606, -88.451...
##  9      9    0.000 ((-88.43947 43.19439, -88.42767 43.19439, -88.42767 43.18606, -88.43947 43.18606, -88.439...
## 10     10    0.000 ((-88.42767 43.19439, -88.41587 43.19439, -88.41587 43.18606, -88.42767 43.18606, -88.427...
## # … with 29,893 more rows
…
secondary.roadlengths[which(is.na(secondary.roadlengths$length)),2] <- x0

We inspect secondary.roadlengths, and it looks fine in terms of both data format and data value.

secondary.roadlengths

## Simple feature collection with 29903 features and 2 fields
## geometry type:  POLYGON
## dimension:      XY
## bbox:           xmin: -88.78167 ymin: 40.73704 xmax: -86.46887 ymax: 43.19439
## geographic CRS: WGS 84
## # A tibble: 29,903 x 3
##    DATA.x   length                                                                                     geometry
##     <int>      [m]                                                                                <POLYGON [°]>
##  1      1    0.000 ((-88.53387 43.19439, -88.52207 43.19439, -88.52207 43.18606, -88.53387 43.18606, -88.533...
##  2      2    0.000 ((-88.52207 43.19439, -88.51027 43.19439, -88.51027 43.18606, -88.52207 43.18606, -88.522...
##  3      3    0.000 ((-88.51027 43.19439, -88.49847 43.19439, -88.49847 43.18606, -88.51027 43.18606, -88.510...
##  4      4    0.000 ((-88.49847 43.19439, -88.48667 43.19439, -88.48667 43.18606, -88.49847 43.18606, -88.498...
##  5      5    0.000 ((-88.48667 43.19439, -88.47487 43.19439, -88.47487 43.18606, -88.48667 43.18606, -88.486...
##  6      6    0.000 ((-88.47487 43.19439, -88.46307 43.19439, -88.46307 43.18606, -88.47487 43.18606, -88.474...
##  7      7 1853.511 ((-88.46307 43.19439, -88.45127 43.19439, -88.45127 43.18606, -88.46307 43.18606, -88.463...
##  8      8    0.000 ((-88.45127 43.19439, -88.43947 43.19439, -88.43947 43.18606, -88.45127 43.18606, -88.451...
##  9      9    0.000 ((-88.43947 43.19439, -88.42767 43.19439, -88.42767 43.18606, -88.43947 43.18606, -88.439...
## 10     10    0.000 ((-88.42767 43.19439, -88.41587 43.19439, -88.41587 43.18606, -88.42767 43.18606, -88.427...
## # … with 29,893 more rows
…
motorway.roadlengths[which(is.na(motorway.roadlengths$length)),2] <- x0

Before we proceed, we take a galnce at motorway.roadlengths.

motorway.roadlengths

## Simple feature collection with 29903 features and 2 fields
## geometry type:  POLYGON
## dimension:      XY
## bbox:           xmin: -88.78167 ymin: 40.73704 xmax: -86.46887 ymax: 43.19439
## geographic CRS: WGS 84
## # A tibble: 29,903 x 3
##    DATA.x length                                                                                     geometry
##     <int>    [m]                                                                                <POLYGON [°]>
##  1      1      0 ((-88.53387 43.19439, -88.52207 43.19439, -88.52207 43.18606, -88.53387 43.18606, -88.533...
##  2      2      0 ((-88.52207 43.19439, -88.51027 43.19439, -88.51027 43.18606, -88.52207 43.18606, -88.522...
##  3      3      0 ((-88.51027 43.19439, -88.49847 43.19439, -88.49847 43.18606, -88.51027 43.18606, -88.510...
##  4      4      0 ((-88.49847 43.19439, -88.48667 43.19439, -88.48667 43.18606, -88.49847 43.18606, -88.498...
##  5      5      0 ((-88.48667 43.19439, -88.47487 43.19439, -88.47487 43.18606, -88.48667 43.18606, -88.486...
##  6      6      0 ((-88.47487 43.19439, -88.46307 43.19439, -88.46307 43.18606, -88.47487 43.18606, -88.474...
##  7      7      0 ((-88.46307 43.19439, -88.45127 43.19439, -88.45127 43.18606, -88.46307 43.18606, -88.463...
##  8      8      0 ((-88.45127 43.19439, -88.43947 43.19439, -88.43947 43.18606, -88.45127 43.18606, -88.451...
##  9      9      0 ((-88.43947 43.19439, -88.42767 43.19439, -88.42767 43.18606, -88.43947 43.18606, -88.439...
## 10     10      0 ((-88.42767 43.19439, -88.41587 43.19439, -88.41587 43.18606, -88.42767 43.18606, -88.427...
## # … with 29,893 more rows
…
